{
  "edges": [
    {
      "node": {
        "id": 11,
        "flyer_id": 100,
        "page_number": 1,
        "extraction_status": "",
        "extraction_attempts": 0,
        "needs_manual_review": false,
        "created_at": "2024-03-01T00:00:00Z",
        "updated_at": "2024-03-02T00:00:00Z"
      },
      "cursor": "b2Zmc2V0OjA="
    }
  ],
  "pageInfo": {
    "hasNextPage": true,
    "hasPreviousPage": false,
    "startCursor": "b2Zmc2V0OjA=",
    "endCursor": "b2Zmc2V0OjA="
  },
  "totalCount": 2
}